('C:\\Users\\k.landry\\PycharmProjects\\scrypt\\commande-top\\build\\extract-sql\\PKG-00.pkg',
 {'BINARY': 1,
  'DATA': 1,
  'EXECUTABLE': 1,
  'EXTENSION': 1,
  'PYMODULE': 1,
  'PYSOURCE': 1,
  'PYZ': 0,
  'SPLASH': 1},
 [('PYZ-00.pyz',
   'C:\\Users\\k.landry\\PycharmProjects\\scrypt\\commande-top\\build\\extract-sql\\PYZ-00.pyz',
   'PYZ'),
  ('struct',
   'c:\\users\\k.landry\\appdata\\local\\programs\\python\\python38\\lib\\struct.pyo',
   'PYMODULE'),
  ('pyimod01_os_path',
   'c:\\users\\k.landry\\appdata\\local\\programs\\python\\python38\\lib\\site-packages\\PyInstaller\\loader\\pyimod01_os_path.pyc',
   'PYMODULE'),
  ('pyimod02_archive',
   'c:\\users\\k.landry\\appdata\\local\\programs\\python\\python38\\lib\\site-packages\\PyInstaller\\loader\\pyimod02_archive.pyc',
   'PYMODULE'),
  ('pyimod03_importers',
   'c:\\users\\k.landry\\appdata\\local\\programs\\python\\python38\\lib\\site-packages\\PyInstaller\\loader\\pyimod03_importers.pyc',
   'PYMODULE'),
  ('pyimod04_ctypes',
   'c:\\users\\k.landry\\appdata\\local\\programs\\python\\python38\\lib\\site-packages\\PyInstaller\\loader\\pyimod04_ctypes.pyc',
   'PYMODULE'),
  ('pyiboot01_bootstrap',
   'c:\\users\\k.landry\\appdata\\local\\programs\\python\\python38\\lib\\site-packages\\PyInstaller\\loader\\pyiboot01_bootstrap.py',
   'PYSOURCE'),
  ('pyi_rth_pkgutil',
   'C:\\Users\\k.landry\\AppData\\Local\\Programs\\Python\\Python38\\Lib\\site-packages\\PyInstaller\\hooks\\rthooks\\pyi_rth_pkgutil.py',
   'PYSOURCE'),
  ('pyi_rth_multiprocessing',
   'C:\\Users\\k.landry\\AppData\\Local\\Programs\\Python\\Python38\\Lib\\site-packages\\PyInstaller\\hooks\\rthooks\\pyi_rth_multiprocessing.py',
   'PYSOURCE'),
  ('pyi_rth_inspect',
   'C:\\Users\\k.landry\\AppData\\Local\\Programs\\Python\\Python38\\Lib\\site-packages\\PyInstaller\\hooks\\rthooks\\pyi_rth_inspect.py',
   'PYSOURCE'),
  ('main',
   'C:\\Users\\k.landry\\PycharmProjects\\scrypt\\commande-top\\main.py',
   'PYSOURCE'),
  ('VCRUNTIME140.dll',
   'c:\\users\\k.landry\\appdata\\local\\programs\\python\\python38\\VCRUNTIME140.dll',
   'BINARY'),
  ('python38.dll',
   'c:\\users\\k.landry\\appdata\\local\\programs\\python\\python38\\python38.dll',
   'BINARY'),
  ('_lzma',
   'c:\\users\\k.landry\\appdata\\local\\programs\\python\\python38\\DLLs\\_lzma.pyd',
   'EXTENSION'),
  ('_bz2',
   'c:\\users\\k.landry\\appdata\\local\\programs\\python\\python38\\DLLs\\_bz2.pyd',
   'EXTENSION'),
  ('unicodedata',
   'c:\\users\\k.landry\\appdata\\local\\programs\\python\\python38\\DLLs\\unicodedata.pyd',
   'EXTENSION'),
  ('select',
   'c:\\users\\k.landry\\appdata\\local\\programs\\python\\python38\\DLLs\\select.pyd',
   'EXTENSION'),
  ('_socket',
   'c:\\users\\k.landry\\appdata\\local\\programs\\python\\python38\\DLLs\\_socket.pyd',
   'EXTENSION'),
  ('_overlapped',
   'c:\\users\\k.landry\\appdata\\local\\programs\\python\\python38\\DLLs\\_overlapped.pyd',
   'EXTENSION'),
  ('_ssl',
   'c:\\users\\k.landry\\appdata\\local\\programs\\python\\python38\\DLLs\\_ssl.pyd',
   'EXTENSION'),
  ('_asyncio',
   'c:\\users\\k.landry\\appdata\\local\\programs\\python\\python38\\DLLs\\_asyncio.pyd',
   'EXTENSION'),
  ('_queue',
   'c:\\users\\k.landry\\appdata\\local\\programs\\python\\python38\\DLLs\\_queue.pyd',
   'EXTENSION'),
  ('_ctypes',
   'c:\\users\\k.landry\\appdata\\local\\programs\\python\\python38\\DLLs\\_ctypes.pyd',
   'EXTENSION'),
  ('_multiprocessing',
   'c:\\users\\k.landry\\appdata\\local\\programs\\python\\python38\\DLLs\\_multiprocessing.pyd',
   'EXTENSION'),
  ('pyexpat',
   'c:\\users\\k.landry\\appdata\\local\\programs\\python\\python38\\DLLs\\pyexpat.pyd',
   'EXTENSION'),
  ('_decimal',
   'c:\\users\\k.landry\\appdata\\local\\programs\\python\\python38\\DLLs\\_decimal.pyd',
   'EXTENSION'),
  ('_hashlib',
   'c:\\users\\k.landry\\appdata\\local\\programs\\python\\python38\\DLLs\\_hashlib.pyd',
   'EXTENSION'),
  ('_elementtree',
   'c:\\users\\k.landry\\appdata\\local\\programs\\python\\python38\\DLLs\\_elementtree.pyd',
   'EXTENSION'),
  ('libssl-1_1.dll',
   'c:\\users\\k.landry\\appdata\\local\\programs\\python\\python38\\DLLs\\libssl-1_1.dll',
   'BINARY'),
  ('libcrypto-1_1.dll',
   'c:\\users\\k.landry\\appdata\\local\\programs\\python\\python38\\DLLs\\libcrypto-1_1.dll',
   'BINARY'),
  ('libffi-7.dll',
   'c:\\users\\k.landry\\appdata\\local\\programs\\python\\python38\\DLLs\\libffi-7.dll',
   'BINARY'),
  ('base_library.zip',
   'C:\\Users\\k.landry\\PycharmProjects\\scrypt\\commande-top\\build\\extract-sql\\base_library.zip',
   'DATA'),
  ('wcwidth\\version.json',
   'c:\\users\\k.landry\\appdata\\local\\programs\\python\\python38\\lib\\site-packages\\wcwidth\\version.json',
   'DATA'),
  ('extract-sql.exe.manifest',
   'C:\\Users\\k.landry\\PycharmProjects\\scrypt\\commande-top\\build\\extract-sql\\extract-sql.exe.manifest',
   'BINARY'),
  ('pyi-windows-manifest-filename extract-sql.exe.manifest', '', 'OPTION')],
 False,
 False,
 False,
 [],
 None,
 None,
 None)
